############################################################################################################################
#<@.&&&&&.......:+::.....#...g.~~~:#.......#:.........S.......:#..#####:~~:&###..X...####...X..####...######################
######&.....#....#.::...........~~:####.####...........Y..........#####:~~:.###.......##.......+.....#######################
#~...#......#....#..::...........::...........................:#..#######:~~:.#:......##.......+.....#######################
#....+.S.........#...::..#...................................::#..#######:~~~~+~:.....##.......#############################
#~...+.................::#.........###++####..##################..########&:~~+~~:.....#.......#############################
#....#.......#############.........###~~~..+..#::::::::#.#######..#############:~~:....#.......#############################
#~...#.......#...~~......#.........###++####..###++##++#.#######..#############.:~~~:.....:::::#############################
#....+......S#....~.g............................g................######....###..:~~~:...~~~~~~+~~:#########################
#~...+.......#::.........#.........###++####..###++#####..######..######....###....:~~~~~~~~~~~+~~~:########################
#..++#.......#############......S..#.......+..###..#####..######...#####....####.....:~~~::::.####:~~:######################
#..................................###++####..####.::###..######....###....######.....:::....######:~~:#####################
#.###########+++##########......................########..######.....:....########..........########:~~:####################
#........X#........................#........####.......#...#####&.....:############....Y...##########:~~:###################
#.......::#.::.:::.....~~#.........#........####.......##...####&&.....#############......###########:~~:###################
#.########################.........#.......O......#.....##...###&&&........############...###########+++####################
#..........................&....######........#..........##....##########..#############............&:~~:&.&&........O.&&&&#
#.........................&&&&&.######........#...........++..........###.......................&.....:~~:.........O..O.&&&#
#....O.##.........##.O.....&&&&.######.....######.........##..####++######++###++#####++###.......&....:~~:&.........O...&&#
#......##.........##.........&&.....................&.....##..####++######++######++########............:~~:&&............&#
#...............................##++##........#...&...&....##..&...............X......++#######..........:~~:::::..........#
#...............................##.~##........#....&.&.....##...&........................&...##............:~~~~~:::.......#
#...#.......BB.......##.........+..###........#...&...&....##..##++##++##++###++##++##++###...............:~~::~~~~~~~:....#
#....#..............##..........######........#:..&&&&&....##..############################..##..........:~~:..::::~~~~:::.#
#.....#............##.............###.........#::............................................##.........:~~:........::~~~~:#
#......#........::##............#.....#.###################...####++#############+++##############.....:~~:.........::~~~~.#
#.......###########...............###.........#:::............####.............~~~~~~~~~~~#############+++###############..#
#.................................###.........#:.....O........#####.............~~~~~~~~~~#############~~################..#
#..&&..........................S.:###.........#:..............########################################~~#################..#
#...&&..........................::###.........#...................~~....&......&....g....############~~##################..#
#....&..........####....############..........#...............######~~#############++###############~~###################..#
#..::::::..Y....####...&&&&...................###.#####+##....#######~~#########........###########~~#################.....#
#.:~~~~~~:......####..&&&&........###..........#~~~.....~~....########~~#########......###########~~##################..+..#
#.:~~~~~~:......####.&&...........X#...########..~~~&&~~......#########~~##########++############+++#################..++..#
#..:~~~~:.......####..............###.........#............................&.........g..&.....&........................++..#
#.X.:~~:........####..........................................###################################+++#########++++++++++++..#
#....::....................Y.....:###......####..O............###############################################.>...........D#
############################################################################################################################
